^D:\ANULII-SEMII\CNA\TEMA2_CNA\SERVER\DEBUG\SERVER.OBJ
/OUT:"D:\ANULII-SEMII\CNA\TEMA2_CNA\DEBUG\SERVER.EXE" /INCREMENTAL /NOLOGO /LIBPATH:"D:\ANULII-SEMII\CNA\VCPKG-MASTER\VCPKG-MASTER\INSTALLED\X86-WINDOWS\DEBUG\LIB" /LIBPATH:"D:\VCPKG-MASTER\VCPKG-MASTER\INSTALLED\X86-WINDOWS\DEBUG\LIB" /LIBPATH:"D:\VCPKG-MASTER\VCPKG-MASTER\INSTALLED\X86-WINDOWS\DEBUG\LIB\MANUAL-LINK" ABSL_BASE.LIB ABSL_STRINGS.LIB ABSL_THROW_DELEGATE.LIB ADDRESS_SORTING.LIB CARES.LIB GPR.LIB GRPC.LIB GRPC++.LIB LIBCRYPTO.LIB LIBPROTOBUFD.LIB LIBSSL.LIB UPB.LIB WS2_32.LIB ZLIBD.LIB KERNEL32.LIB USER32.LIB GDI32.LIB WINSPOOL.LIB COMDLG32.LIB ADVAPI32.LIB SHELL32.LIB OLE32.LIB OLEAUT32.LIB UUID.LIB ODBC32.LIB ODBCCP32.LIB "D:\VCPKG-MASTER\VCPKG-MASTER\INSTALLED\X86-WINDOWS\DEBUG\LIB\*.LIB" /MANIFEST /MANIFESTUAC:"level='asInvoker' uiAccess='false'" /manifest:embed /DEBUG:FASTLINK /PDB:"D:\ANULII-SEMII\CNA\TEMA2_CNA\DEBUG\SERVER.PDB" /SUBSYSTEM:CONSOLE /TLBID:1 /DYNAMICBASE /NXCOMPAT /IMPLIB:"D:\ANULII-SEMII\CNA\TEMA2_CNA\DEBUG\SERVER.LIB" /MACHINE:X86 DEBUG\SERVER.OBJ
^D:\ANULII-SEMII\CNA\TEMA2_CNA\DEBUG\GENERATED.LIB|D:\ANULII-SEMII\CNA\TEMA2_CNA\SERVER\DEBUG\DATE.OBJ|D:\ANULII-SEMII\CNA\TEMA2_CNA\SERVER\DEBUG\PARSEFROMFILE.OBJ|D:\ANULII-SEMII\CNA\TEMA2_CNA\SERVER\DEBUG\SERVER.OBJ|D:\ANULII-SEMII\CNA\TEMA2_CNA\SERVER\DEBUG\SHOWSIGNSERVICEIMPL.OBJ|D:\ANULII-SEMII\CNA\TEMA2_CNA\SERVER\DEBUG\SIGN.OBJ
/OUT:"D:\ANULII-SEMII\CNA\TEMA2_CNA\DEBUG\SERVER.EXE" /INCREMENTAL /NOLOGO /LIBPATH:"D:\ANULII-SEMII\CNA\VCPKG-MASTER\VCPKG-MASTER\INSTALLED\X86-WINDOWS\DEBUG\LIB" /LIBPATH:"D:\VCPKG-MASTER\VCPKG-MASTER\INSTALLED\X86-WINDOWS\DEBUG\LIB" /LIBPATH:"D:\VCPKG-MASTER\VCPKG-MASTER\INSTALLED\X86-WINDOWS\DEBUG\LIB\MANUAL-LINK" ABSL_BASE.LIB ABSL_STRINGS.LIB ABSL_THROW_DELEGATE.LIB ADDRESS_SORTING.LIB CARES.LIB GPR.LIB GRPC.LIB GRPC++.LIB LIBCRYPTO.LIB LIBPROTOBUFD.LIB LIBSSL.LIB UPB.LIB WS2_32.LIB ZLIBD.LIB KERNEL32.LIB USER32.LIB GDI32.LIB WINSPOOL.LIB COMDLG32.LIB ADVAPI32.LIB SHELL32.LIB OLE32.LIB OLEAUT32.LIB UUID.LIB ODBC32.LIB ODBCCP32.LIB "D:\VCPKG-MASTER\VCPKG-MASTER\INSTALLED\X86-WINDOWS\DEBUG\LIB\*.LIB" /MANIFEST /MANIFESTUAC:"level='asInvoker' uiAccess='false'" /manifest:embed /DEBUG:FASTLINK /PDB:"D:\ANULII-SEMII\CNA\TEMA2_CNA\DEBUG\SERVER.PDB" /SUBSYSTEM:CONSOLE /TLBID:1 /DYNAMICBASE /NXCOMPAT /IMPLIB:"D:\ANULII-SEMII\CNA\TEMA2_CNA\DEBUG\SERVER.LIB" /MACHINE:X86 DEBUG\DATE.OBJ
DEBUG\PARSEFROMFILE.OBJ
DEBUG\SERVER.OBJ
DEBUG\SHOWSIGNSERVICEIMPL.OBJ
DEBUG\SIGN.OBJ
"D:\ANULII-SEMII\CNA\TEMA2_CNA\DEBUG\GENERATED.LIB"
