^D:\AnulII-SEMII\CNA\Tema2_CNA\Debug\Server.exe
D:\AnulII-SEMII\CNA\Tema2_CNA\Server\Debug\vcpkg.applocal.log
^D:\AnulII-SEMII\CNA\Tema2_CNA\Debug\Server.exe
D:\AnulII-SEMII\CNA\Tema2_CNA\Server\Debug\vcpkg.applocal.log
D:\AnulII-SEMII\CNA\Tema2_CNA\Debug\libprotobufd.dll
D:\AnulII-SEMII\CNA\Tema2_CNA\Debug\libcrypto-1_1.dll
D:\AnulII-SEMII\CNA\Tema2_CNA\Debug\libssl-1_1.dll
D:\AnulII-SEMII\CNA\Tema2_CNA\Debug\zlibd1.dll
D:\AnulII-SEMII\CNA\Tema2_CNA\Debug\cares.dll
^D:\AnulII-SEMII\CNA\Tema2_CNA\Debug\Server.exe
D:\AnulII-SEMII\CNA\Tema2_CNA\Server\Debug\vcpkg.applocal.log
D:\AnulII-SEMII\CNA\Tema2_CNA\Debug\libprotobufd.dll
D:\AnulII-SEMII\CNA\Tema2_CNA\Debug\libcrypto-1_1.dll
D:\AnulII-SEMII\CNA\Tema2_CNA\Debug\libssl-1_1.dll
D:\AnulII-SEMII\CNA\Tema2_CNA\Debug\zlibd1.dll
D:\AnulII-SEMII\CNA\Tema2_CNA\Debug\cares.dll
^D:\AnulII-SEMII\CNA\Tema2_CNA\Debug\Server.exe
D:\AnulII-SEMII\CNA\Tema2_CNA\Server\Debug\vcpkg.applocal.log
D:\AnulII-SEMII\CNA\Tema2_CNA\Debug\libprotobufd.dll
D:\AnulII-SEMII\CNA\Tema2_CNA\Debug\libcrypto-1_1.dll
D:\AnulII-SEMII\CNA\Tema2_CNA\Debug\libssl-1_1.dll
D:\AnulII-SEMII\CNA\Tema2_CNA\Debug\zlibd1.dll
D:\AnulII-SEMII\CNA\Tema2_CNA\Debug\cares.dll
^D:\AnulII-SEMII\CNA\Tema2_CNA\Debug\Server.exe
D:\AnulII-SEMII\CNA\Tema2_CNA\Server\Debug\vcpkg.applocal.log
D:\AnulII-SEMII\CNA\Tema2_CNA\Debug\libprotobufd.dll
D:\AnulII-SEMII\CNA\Tema2_CNA\Debug\libcrypto-1_1.dll
D:\AnulII-SEMII\CNA\Tema2_CNA\Debug\libssl-1_1.dll
D:\AnulII-SEMII\CNA\Tema2_CNA\Debug\zlibd1.dll
D:\AnulII-SEMII\CNA\Tema2_CNA\Debug\cares.dll
^D:\AnulII-SEMII\CNA\Tema2_CNA\Debug\Server.exe
D:\AnulII-SEMII\CNA\Tema2_CNA\Server\Debug\vcpkg.applocal.log
D:\AnulII-SEMII\CNA\Tema2_CNA\Debug\libprotobufd.dll
D:\AnulII-SEMII\CNA\Tema2_CNA\Debug\libcrypto-1_1.dll
D:\AnulII-SEMII\CNA\Tema2_CNA\Debug\libssl-1_1.dll
D:\AnulII-SEMII\CNA\Tema2_CNA\Debug\zlibd1.dll
D:\AnulII-SEMII\CNA\Tema2_CNA\Debug\cares.dll
^D:\AnulII-SEMII\CNA\Tema2_CNA\Debug\Server.exe
D:\AnulII-SEMII\CNA\Tema2_CNA\Server\Debug\vcpkg.applocal.log
D:\AnulII-SEMII\CNA\Tema2_CNA\Debug\libprotobufd.dll
D:\AnulII-SEMII\CNA\Tema2_CNA\Debug\libcrypto-1_1.dll
D:\AnulII-SEMII\CNA\Tema2_CNA\Debug\libssl-1_1.dll
D:\AnulII-SEMII\CNA\Tema2_CNA\Debug\zlibd1.dll
D:\AnulII-SEMII\CNA\Tema2_CNA\Debug\cares.dll
^D:\AnulII-SEMII\CNA\Tema2_CNA\Debug\Server.exe
D:\AnulII-SEMII\CNA\Tema2_CNA\Server\Debug\vcpkg.applocal.log
D:\AnulII-SEMII\CNA\Tema2_CNA\Debug\libprotobufd.dll
D:\AnulII-SEMII\CNA\Tema2_CNA\Debug\libcrypto-1_1.dll
D:\AnulII-SEMII\CNA\Tema2_CNA\Debug\libssl-1_1.dll
D:\AnulII-SEMII\CNA\Tema2_CNA\Debug\zlibd1.dll
D:\AnulII-SEMII\CNA\Tema2_CNA\Debug\cares.dll
^D:\AnulII-SEMII\CNA\Tema2_CNA\Debug\Server.exe
D:\AnulII-SEMII\CNA\Tema2_CNA\Server\Debug\vcpkg.applocal.log
D:\AnulII-SEMII\CNA\Tema2_CNA\Debug\libprotobufd.dll
D:\AnulII-SEMII\CNA\Tema2_CNA\Debug\libcrypto-1_1.dll
D:\AnulII-SEMII\CNA\Tema2_CNA\Debug\libssl-1_1.dll
D:\AnulII-SEMII\CNA\Tema2_CNA\Debug\zlibd1.dll
D:\AnulII-SEMII\CNA\Tema2_CNA\Debug\cares.dll
^D:\AnulII-SEMII\CNA\Tema2_CNA\Debug\Server.exe
D:\AnulII-SEMII\CNA\Tema2_CNA\Server\Debug\vcpkg.applocal.log
D:\AnulII-SEMII\CNA\Tema2_CNA\Debug\libprotobufd.dll
D:\AnulII-SEMII\CNA\Tema2_CNA\Debug\libcrypto-1_1.dll
D:\AnulII-SEMII\CNA\Tema2_CNA\Debug\libssl-1_1.dll
D:\AnulII-SEMII\CNA\Tema2_CNA\Debug\zlibd1.dll
D:\AnulII-SEMII\CNA\Tema2_CNA\Debug\cares.dll
^D:\AnulII-SEMII\CNA\Tema2_CNA\Debug\Server.exe
D:\AnulII-SEMII\CNA\Tema2_CNA\Server\Debug\vcpkg.applocal.log
D:\AnulII-SEMII\CNA\Tema2_CNA\Debug\libprotobufd.dll
D:\AnulII-SEMII\CNA\Tema2_CNA\Debug\libcrypto-1_1.dll
D:\AnulII-SEMII\CNA\Tema2_CNA\Debug\libssl-1_1.dll
D:\AnulII-SEMII\CNA\Tema2_CNA\Debug\zlibd1.dll
D:\AnulII-SEMII\CNA\Tema2_CNA\Debug\cares.dll
^D:\AnulII-SEMII\CNA\Tema2_CNA\Debug\Server.exe
D:\AnulII-SEMII\CNA\Tema2_CNA\Server\Debug\vcpkg.applocal.log
D:\AnulII-SEMII\CNA\Tema2_CNA\Debug\libprotobufd.dll
D:\AnulII-SEMII\CNA\Tema2_CNA\Debug\libcrypto-1_1.dll
D:\AnulII-SEMII\CNA\Tema2_CNA\Debug\libssl-1_1.dll
D:\AnulII-SEMII\CNA\Tema2_CNA\Debug\zlibd1.dll
D:\AnulII-SEMII\CNA\Tema2_CNA\Debug\cares.dll
^D:\AnulII-SEMII\CNA\Tema2_CNA\Debug\Server.exe
D:\AnulII-SEMII\CNA\Tema2_CNA\Server\Debug\vcpkg.applocal.log
D:\AnulII-SEMII\CNA\Tema2_CNA\Debug\libprotobufd.dll
D:\AnulII-SEMII\CNA\Tema2_CNA\Debug\libcrypto-1_1.dll
D:\AnulII-SEMII\CNA\Tema2_CNA\Debug\libssl-1_1.dll
D:\AnulII-SEMII\CNA\Tema2_CNA\Debug\zlibd1.dll
D:\AnulII-SEMII\CNA\Tema2_CNA\Debug\cares.dll
^D:\AnulII-SEMII\CNA\Tema2_CNA\Debug\Server.exe
D:\AnulII-SEMII\CNA\Tema2_CNA\Server\Debug\vcpkg.applocal.log
D:\AnulII-SEMII\CNA\Tema2_CNA\Debug\libprotobufd.dll
D:\AnulII-SEMII\CNA\Tema2_CNA\Debug\libcrypto-1_1.dll
D:\AnulII-SEMII\CNA\Tema2_CNA\Debug\libssl-1_1.dll
D:\AnulII-SEMII\CNA\Tema2_CNA\Debug\zlibd1.dll
D:\AnulII-SEMII\CNA\Tema2_CNA\Debug\cares.dll
^D:\AnulII-SEMII\CNA\Tema2_CNA\Debug\Server.exe
D:\AnulII-SEMII\CNA\Tema2_CNA\Server\Debug\vcpkg.applocal.log
D:\AnulII-SEMII\CNA\Tema2_CNA\Debug\libprotobufd.dll
D:\AnulII-SEMII\CNA\Tema2_CNA\Debug\libcrypto-1_1.dll
D:\AnulII-SEMII\CNA\Tema2_CNA\Debug\libssl-1_1.dll
D:\AnulII-SEMII\CNA\Tema2_CNA\Debug\zlibd1.dll
D:\AnulII-SEMII\CNA\Tema2_CNA\Debug\cares.dll
^D:\AnulII-SEMII\CNA\Tema2_CNA\Debug\Server.exe
D:\AnulII-SEMII\CNA\Tema2_CNA\Server\Debug\vcpkg.applocal.log
D:\AnulII-SEMII\CNA\Tema2_CNA\Debug\libprotobufd.dll
D:\AnulII-SEMII\CNA\Tema2_CNA\Debug\libcrypto-1_1.dll
D:\AnulII-SEMII\CNA\Tema2_CNA\Debug\libssl-1_1.dll
D:\AnulII-SEMII\CNA\Tema2_CNA\Debug\zlibd1.dll
D:\AnulII-SEMII\CNA\Tema2_CNA\Debug\cares.dll
^D:\AnulII-SEMII\CNA\Tema2_CNA\Debug\Server.exe
D:\AnulII-SEMII\CNA\Tema2_CNA\Server\Debug\vcpkg.applocal.log
D:\AnulII-SEMII\CNA\Tema2_CNA\Debug\libcrypto-1_1.dll
D:\AnulII-SEMII\CNA\Tema2_CNA\Debug\libssl-1_1.dll
D:\AnulII-SEMII\CNA\Tema2_CNA\Debug\zlibd1.dll
D:\AnulII-SEMII\CNA\Tema2_CNA\Debug\cares.dll
D:\AnulII-SEMII\CNA\Tema2_CNA\Debug\libprotobufd.dll
^D:\AnulII-SEMII\CNA\Tema2_CNA\Debug\Server.exe
D:\AnulII-SEMII\CNA\Tema2_CNA\Server\Debug\vcpkg.applocal.log
D:\AnulII-SEMII\CNA\Tema2_CNA\Debug\libcrypto-1_1.dll
D:\AnulII-SEMII\CNA\Tema2_CNA\Debug\libssl-1_1.dll
D:\AnulII-SEMII\CNA\Tema2_CNA\Debug\zlibd1.dll
D:\AnulII-SEMII\CNA\Tema2_CNA\Debug\cares.dll
D:\AnulII-SEMII\CNA\Tema2_CNA\Debug\libprotobufd.dll
^D:\AnulII-SEMII\CNA\Tema2_CNA\Debug\Server.exe
D:\AnulII-SEMII\CNA\Tema2_CNA\Server\Debug\vcpkg.applocal.log
D:\AnulII-SEMII\CNA\Tema2_CNA\Debug\libcrypto-1_1.dll
D:\AnulII-SEMII\CNA\Tema2_CNA\Debug\libssl-1_1.dll
D:\AnulII-SEMII\CNA\Tema2_CNA\Debug\zlibd1.dll
D:\AnulII-SEMII\CNA\Tema2_CNA\Debug\cares.dll
D:\AnulII-SEMII\CNA\Tema2_CNA\Debug\libprotobufd.dll
^D:\AnulII-SEMII\CNA\Tema2_CNA\Debug\Server.exe
D:\AnulII-SEMII\CNA\Tema2_CNA\Server\Debug\vcpkg.applocal.log
D:\AnulII-SEMII\CNA\Tema2_CNA\Debug\libcrypto-1_1.dll
D:\AnulII-SEMII\CNA\Tema2_CNA\Debug\libssl-1_1.dll
D:\AnulII-SEMII\CNA\Tema2_CNA\Debug\zlibd1.dll
D:\AnulII-SEMII\CNA\Tema2_CNA\Debug\cares.dll
D:\AnulII-SEMII\CNA\Tema2_CNA\Debug\libprotobufd.dll
^D:\AnulII-SEMII\CNA\Tema2_CNA\Debug\Server.exe
D:\AnulII-SEMII\CNA\Tema2_CNA\Server\Debug\vcpkg.applocal.log
D:\AnulII-SEMII\CNA\Tema2_CNA\Debug\libcrypto-1_1.dll
D:\AnulII-SEMII\CNA\Tema2_CNA\Debug\libssl-1_1.dll
D:\AnulII-SEMII\CNA\Tema2_CNA\Debug\zlibd1.dll
D:\AnulII-SEMII\CNA\Tema2_CNA\Debug\cares.dll
D:\AnulII-SEMII\CNA\Tema2_CNA\Debug\libprotobufd.dll
^D:\AnulII-SEMII\CNA\Tema2_CNA\Debug\Server.exe
D:\AnulII-SEMII\CNA\Tema2_CNA\Server\Debug\vcpkg.applocal.log
D:\AnulII-SEMII\CNA\Tema2_CNA\Debug\libcrypto-1_1.dll
D:\AnulII-SEMII\CNA\Tema2_CNA\Debug\libssl-1_1.dll
D:\AnulII-SEMII\CNA\Tema2_CNA\Debug\zlibd1.dll
D:\AnulII-SEMII\CNA\Tema2_CNA\Debug\cares.dll
D:\AnulII-SEMII\CNA\Tema2_CNA\Debug\libprotobufd.dll
^D:\AnulII-SEMII\CNA\Tema2_CNA\Debug\Server.exe
D:\AnulII-SEMII\CNA\Tema2_CNA\Server\Debug\vcpkg.applocal.log
D:\AnulII-SEMII\CNA\Tema2_CNA\Debug\libcrypto-1_1.dll
D:\AnulII-SEMII\CNA\Tema2_CNA\Debug\libssl-1_1.dll
D:\AnulII-SEMII\CNA\Tema2_CNA\Debug\zlibd1.dll
D:\AnulII-SEMII\CNA\Tema2_CNA\Debug\cares.dll
D:\AnulII-SEMII\CNA\Tema2_CNA\Debug\libprotobufd.dll
